foe_green_space_eda_1
…
theme_set(theme_minimal())

Local Authority District to Region lookup (December 2019 used) - https://geoportal.statistics.gov.uk/datasets/3ba3daf9278f47daba0f561889c3521a_0

green_space <- read_excel("../Data/(FOE) Green Space Consolidated Data - England - Version 2.1.xlsx",
                          sheet = "MSOAs V2.1")

## New names:
## * `` -> ...1

green_space

## # A tibble: 6,791 x 38
##     ...1 MSOA_Code MSOA_Name MSOA_Name_House~ LA_Code LA_Name LA_Name_For_Rea~
##    <dbl> <chr>     <chr>     <chr>            <chr>   <chr>   <chr>           
##  1     1 E02000001 City of ~ City of London   E09000~ City o~ City of London  
##  2     2 E02000002 Barking ~ Marks Gate       E09000~ Barkin~ Barking and Dag~
##  3     3 E02000003 Barking ~ Chadwell Heath ~ E09000~ Barkin~ Barking and Dag~
##  4     4 E02000004 Barking ~ Eastbrookend     E09000~ Barkin~ Barking and Dag~
##  5     5 E02000005 Barking ~ Becontree Heath  E09000~ Barkin~ Barking and Dag~
##  6     6 E02000007 Barking ~ Central Park & ~ E09000~ Barkin~ Barking and Dag~
##  7     7 E02000008 Barking ~ Becontree East   E09000~ Barkin~ Barking and Dag~
##  8     8 E02000009 Barking ~ Becontree West   E09000~ Barkin~ Barking and Dag~
##  9     9 E02000010 Barking ~ Dagenham North   E09000~ Barkin~ Barking and Dag~
## 10    10 E02000011 Barking ~ Dagenham Eastbr~ E09000~ Barkin~ Barking and Dag~
## # ... with 6,781 more rows, and 31 more variables: Area <dbl>,
## #   Population_IMD <dbl>, Population_Density <dbl>,
## #   Total_Pop_From_Ethnicity_Data <dbl>, White_Pop <dbl>,
## #   Mixed_Multiple_Ethnic_Group_Pop <dbl>, Asian_AsianBritish_Pop <dbl>,
## #   Black_African_Caribbean_BlackBritish_Pop <dbl>,
## #   Other_Ethnic_Group_Pop <dbl>, BAME_Pop <dbl>, Income_Index <dbl>,
## #   GreenSpace_Area <dbl>, GreenSpace_Area_Per_Capita <dbl>,
## #   Unbuffered_GOSpace_Area <dbl>, Buffrd_GOSpace_Area <dbl>,
## #   Unbuffered_GOSpace_Per_Capita <dbl>, Pop_Area <dbl>,
…
## 
## -- Column specification --------------------------------------------------------
## cols(
##   FID = col_double(),
##   LAD19CD = col_character(),
##   LAD19NM = col_character(),
##   RGN19CD = col_character(),
##   RGN19NM = col_character()
## )

LAD_to_region

## # A tibble: 317 x 3
##    LAD19CD   RGN19CD   RGN19NM        
##    <chr>     <chr>     <chr>          
##  1 E09000001 E12000007 London         
##  2 E09000002 E12000007 London         
##  3 E07000064 E12000008 South East     
##  4 E09000003 E12000007 London         
##  5 E09000004 E12000007 London         
##  6 E09000005 E12000007 London         
##  7 E07000065 E12000008 South East     
##  8 E07000066 E12000006 East of England
##  9 E09000006 E12000007 London         
## 10 E09000007 E12000007 London         
## # ... with 307 more rows

# add region names and codes (from ONS look up) to FOE green space data
green_space <- green_space %>% 
  left_join(LAD_to_region, by = c("LA_Code" = "LAD19CD")) %>% 
  relocate(RGN19CD, RGN19NM, .before = Area) %>% 
  rename(region_code = RGN19CD,
         region_name = RGN19NM)

green_space

## # A tibble: 6,791 x 40
##     ...1 MSOA_Code MSOA_Name MSOA_Name_House~ LA_Code LA_Name LA_Name_For_Rea~
##    <dbl> <chr>     <chr>     <chr>            <chr>   <chr>   <chr>           
##  1     1 E02000001 City of ~ City of London   E09000~ City o~ City of London  
##  2     2 E02000002 Barking ~ Marks Gate       E09000~ Barkin~ Barking and Dag~
##  3     3 E02000003 Barking ~ Chadwell Heath ~ E09000~ Barkin~ Barking and Dag~
##  4     4 E02000004 Barking ~ Eastbrookend     E09000~ Barkin~ Barking and Dag~
##  5     5 E02000005 Barking ~ Becontree Heath  E09000~ Barkin~ Barking and Dag~
##  6     6 E02000007 Barking ~ Central Park & ~ E09000~ Barkin~ Barking and Dag~
##  7     7 E02000008 Barking ~ Becontree East   E09000~ Barkin~ Barking and Dag~
##  8     8 E02000009 Barking ~ Becontree West   E09000~ Barkin~ Barking and Dag~
##  9     9 E02000010 Barking ~ Dagenham North   E09000~ Barkin~ Barking and Dag~
## 10    10 E02000011 Barking ~ Dagenham Eastbr~ E09000~ Barkin~ Barking and Dag~
## # ... with 6,781 more rows, and 33 more variables: region_code <chr>,
## #   region_name <chr>, Area <dbl>, Population_IMD <dbl>,
## #   Population_Density <dbl>, Total_Pop_From_Ethnicity_Data <dbl>,
## #   White_Pop <dbl>, Mixed_Multiple_Ethnic_Group_Pop <dbl>,
## #   Asian_AsianBritish_Pop <dbl>,
## #   Black_African_Caribbean_BlackBritish_Pop <dbl>,
## #   Other_Ethnic_Group_Pop <dbl>, BAME_Pop <dbl>, Income_Index <dbl>,
## #   GreenSpace_Area <dbl>, GreenSpace_Area_Per_Capita <dbl>,
## #   Unbuffered_GOSpace_Area <dbl>, Buffrd_GOSpace_Area <dbl>,
…
  # calculate rating proportions by region
  group_by(region_name) %>% 
  mutate(prop = msoa_count / sum(msoa_count)) %>% 
  ungroup()

## `summarise()` regrouping output by 'region_name' (override with `.groups` argument)

msoa_by_region_and_rating

## # A tibble: 45 x 4
##    region_name     Green_Space_Deprivation_Rating msoa_count   prop
##    <chr>           <chr>                               <int>  <dbl>
##  1 East Midlands   A                                     153 0.267 
##  2 East Midlands   B                                     134 0.234 
##  3 East Midlands   C                                     193 0.337 
##  4 East Midlands   D                                      43 0.0750
##  5 East Midlands   E                                      50 0.0873
##  6 East of England A                                     236 0.321 
##  7 East of England B                                     131 0.178 
##  8 East of England C                                     229 0.311 
##  9 East of England D                                      77 0.105 
## 10 East of England E                                      63 0.0856
## # ... with 35 more rows
…
It would be easier to read if I produced separate plots for each green space deprivation rating, as then the regions could be put in rank order.

prop_a <- msoa_by_region_and_rating %>%
  filter(Green_Space_Deprivation_Rating == "A") %>% 
  mutate(prop_a = prop) %>% 
  select(region_name, prop_a)

msoa_by_region_and_rating <- msoa_by_region_and_rating %>% 
  left_join(prop_a)

## Joining, by = "region_name"

msoa_by_region_and_rating  

## # A tibble: 45 x 5
##    region_name     Green_Space_Deprivation_Rating msoa_count   prop prop_a
##    <chr>           <chr>                               <int>  <dbl>  <dbl>
##  1 East Midlands   A                                     153 0.267   0.267
##  2 East Midlands   B                                     134 0.234   0.267
##  3 East Midlands   C                                     193 0.337   0.267
##  4 East Midlands   D                                      43 0.0750  0.267
##  5 East Midlands   E                                      50 0.0873  0.267
##  6 East of England A                                     236 0.321   0.321
##  7 East of England B                                     131 0.178   0.321
##  8 East of England C                                     229 0.311   0.321
##  9 East of England D                                      77 0.105   0.321
## 10 East of England E                                      63 0.0856  0.321
## # ... with 35 more rows
…
